{
  "prepare_queue": {
    "installed": [],
    "uninstalled": []
  },
  "config_munge": {
    "files": {}
  },
  "installed_plugins": {
    "cordova-plugin-background-mode": {
      "PACKAGE_NAME": "Round"
    },
    "cordova-plugin-device": {
      "PACKAGE_NAME": "Round"
    },
    "cordova-plugin-ionic-keyboard": {
      "PACKAGE_NAME": "Round"
    },
    "cordova-plugin-ionic-webview": {
      "PACKAGE_NAME": "Round"
    },
    "cordova-plugin-splashscreen": {
      "PACKAGE_NAME": "Round"
    },
    "cordova-plugin-statusbar": {
      "PACKAGE_NAME": "Round"
    },
    "cordova-plugin-whitelist": {
      "PACKAGE_NAME": "Round"
    },
    "cordova-plugin-camera": {
      "PACKAGE_NAME": "Round"
    },
    "cordova-plugin-file": {
      "PACKAGE_NAME": "Patrol"
    }
  },
  "dependent_plugins": {}
}
